<?xml version="1.0" encoding="UTF-8" standalone="no"?>
<!-- Created with Inkscape (http://www.inkscape.org/) -->

<svg
   width="1024"
   height="1024"
   viewBox="0 0 270.93333 270.93334"
   version="1.1"
   id="svg5"
   inkscape:version="1.1.1 (3bf5ae0d25, 2021-09-20, custom)"
   sodipodi:docname="moneyconvertor.svg"
   inkscape:export-filename="/home/ivandereviankin/projects/JS/MoneyConvertor/favicon.png"
   inkscape:export-xdpi="10.125001"
   inkscape:export-ydpi="10.125001"
   xmlns:inkscape="http://www.inkscape.org/namespaces/inkscape"
   xmlns:sodipodi="http://sodipodi.sourceforge.net/DTD/sodipodi-0.dtd"
   xmlns:xlink="http://www.w3.org/1999/xlink"
   xmlns="http://www.w3.org/2000/svg"
   xmlns:svg="http://www.w3.org/2000/svg">
  <sodipodi:namedview
     id="namedview7"
     pagecolor="#ffffff"
     bordercolor="#111111"
     borderopacity="1"
     inkscape:pageshadow="0"
     inkscape:pageopacity="0"
     inkscape:pagecheckerboard="1"
     inkscape:document-units="mm"
     showgrid="false"
     units="px"
     height="1024px"
     inkscape:zoom="0.5"
     inkscape:cx="734"
     inkscape:cy="572"
     inkscape:window-width="1366"
     inkscape:window-height="739"
     inkscape:window-x="0"
     inkscape:window-y="0"
     inkscape:window-maximized="1"
     inkscape:current-layer="layer1" />
  <defs
     id="defs2">
    <linearGradient
       inkscape:collect="always"
       id="linearGradient14514">
      <stop
         style="stop-color:#006400;stop-opacity:1"
         offset="0"
         id="stop14510" />
      <stop
         style="stop-color:#00be00;stop-opacity:1"
         offset="1"
         id="stop14512" />
    </linearGradient>
    <linearGradient
       inkscape:collect="always"
       xlink:href="#linearGradient14514"
       id="linearGradient14516"
       x1="139.1452"
       y1="271.96759"
       x2="139.1452"
       y2="-1.4397366"
       gradientUnits="userSpaceOnUse"
       gradientTransform="translate(7.1207682e-6)" />
  </defs>
  <g
     inkscape:label="Шар 1"
     inkscape:groupmode="layer"
     id="layer1">
    <rect
       style="fill:url(#linearGradient14516);fill-opacity:1;stroke-width:0.264583"
       id="rect55"
       height="270.93332"
       x="7.1207683e-06"
       y="7.1207683e-06"
       width="270.93332"
       ry="0"
       rx="0" />
    <path
       id="path15755"
       style="opacity:1;fill:#ffffff;fill-opacity:1;fill-rule:evenodd;stroke:#008000;stroke-width:0.164917;stroke-miterlimit:4;stroke-dasharray:none;stroke-opacity:0"
       d="m 135.46666,68.662459 a 66.804204,66.804204 0 0 0 -66.804201,66.804201 66.804204,66.804204 0 0 0 66.804201,66.80421 66.804204,66.804204 0 0 0 66.80421,-66.80421 66.804204,66.804204 0 0 0 -66.80421,-66.804201 z m 0,5.726075 a 61.078129,61.078129 0 0 1 61.07813,61.078126 61.078129,61.078129 0 0 1 -61.07813,61.07813 61.078129,61.078129 0 0 1 -61.078126,-61.07813 61.078129,61.078129 0 0 1 61.078126,-61.078126 z" />
    <path
       d="m 152.46615,130.20146 -12.99105,10.50396 h 38.15292 v 11.6152 h -49.47708 c -3.30729,2.48709 -5.26521,5.5298 -5.26521,9.39271 0,6.64104 5.26521,10.23938 14.65792,10.23938 8.01687,0 14.9225,-3.86292 20.45229,-11.87979 l 15.21354,10.23937 c -8.28146,12.72646 -23.23042,19.07646 -37.33271,19.07646 -18.52083,0 -32.33208,-8.83708 -32.33208,-23.495 0,-4.70958 1.66687,-9.68375 4.97416,-13.54667 H 93.305313 V 140.73187 H 117.62052 L 130.9026,130.22792 H 93.305313 v -11.61521 h 49.212497 c 3.59834,-3.30729 5.26521,-6.35 5.26521,-9.94834 0,-5.79437 -5.26521,-9.948328 -13.28208,-9.948328 -7.75229,0 -14.36688,4.418538 -19.07646,11.879788 l -14.65792,-9.97479 c 8.01688,-12.726456 21.00792,-19.076456 35.11021,-19.076456 19.07646,0 31.51188,9.948333 31.51188,23.494996 0,4.97417 -1.66688,9.94834 -4.41855,13.54667 h 14.65792 v 11.61521 z"
       id="path16092"
       style="fill:#ffffff;stroke-width:0.264583" />
  </g>
</svg>
